﻿NO,0
NAME,당신
CALLNAME,당신

CSTR,종류,인간

BASE,체력,2000
BASE,기력,1500
BASE,정신력,2500

TALENT,성별,0
TALENT,처녀,
TALENT,애널처녀,
TALENT,키스미경험,

ABL,성지식,3
ABL,기교,2
ABL,가창,25
ABL,요리,25

TALENT,V조임,500
TALENT,A조임,500
TALENT,머리색,0x000000
TALENT,머리길이,200
