익스큐서너		40	16600	630	350	15	0	120	4.5	0	0	0
실드블레이드	40	26800	465	250	10	1080	60	4.25	25	25	25
롱블레이드		40	25100	549	175	125	0	120	4.6	0	0	0
강화형나이트칙	80	5593	702	240	10	84	45	4.1	25	25	25
		81	5660	710	240	10	85	45	4.1	25	25	25
나이트칙실더개	80	6275	573	150	5	346	25	3.4	35	35	35
		82	9054	573	210	5	506	47.5	3.8	35	35	35
		85	9372	592	215	5	521	47.5	3.8	35	35	35
레기온		80	5090	633	220	5	105	35	4.05	0	0	0
		81	5150	640	220	5	106	35	4.05	0	0	0
팔랑스		80	6088	509	150	10	287	25	3.95	40	40	40
		81	6160	515	150	10	290	25	3.95	40	40	40
		82	10072	712	225	10	762	62.5	4	40	40	40
		85	10408	736	225	10	785	62.5	4	40	40	40
케미컬 칙		80	5040	598	195	10	84	52.5	4.1	50	50	50
		89	10016	902	250	10	216	80	4.2	25	25	25
아쿠아 칙		75	9770	252	300	5	445	45	4.15	50	100	-50
		80	10295	267	300	5	470	45	4.15	50	100	-50
썬더 칙		75	7860	1050	210	10	94	80	4.2	-25	-25	99
		80	8310	1112	210	10	99	80	4.2	-25	-25	99
		85	8760	1175	210	10	104	80	4.2	-25	-25	99
칙 쿼터마스터	75	7832	554	350	5	360	30	4	30	30	30
		85	8832	620	350	5	398	30	4	30	30	30
강화형 재퍼		75	8645	640	247	10	285	80	4.1	25	25	75
헤비 스카우트	80	6708	1147	180	20	0	77.5	4.25	0	0	0
		85	7093	1212	180	20	0	77.5	4.25	0	0	0
스캐럽 HC		80	7673	702	175	15	327	135	4.55	50	0	0
트릭스터		80	21825	1037	250	15	144	40	4.2	15	15	15
		85	23200	1100	250	15	152	40	4.2	15	15	15
스토커		80	9975	920	160	5	63	25	4	25	25	25
		82	10225	943	160	5	64	25	4	25	25	25
광폭화 레이더	85	19725	900	180	15	0	120	4.55	-30	0	75
		82	19320	870	180	15	0	120	4.55	-30	0	75
시작형 빅 칙	89	17890	1460	175	15	860	0	3.25	25	25	25
빅 칙 실더		77	12360	683	90	7.5	1010	1	3.25	25	25	-25
나이트칙디텍터G	89	10600	372	280	1	854	75	4.4	-25	-25	-25
개량형 칙 캐노	89	10531	1440	185	10	854	0	3.4	50	25	25
메머드		80	14245	1226	135	7.5	886	0	3.2	0	0	0
저거너트		80	17970	840	135	10	1277	0	3.25	25	25	25