﻿;Base.csv 
;LOSEBASE: 	1차원 배열, @SHOW_USERCOM 종료시 초기화(쓰지 말자?)
;BASE: 		캐릭터 1차원 배열, ADDCHARA 시 MAXBASE로 할당된다.
;MAXBASE: 	캐릭터 1차원 배열, CHARAXX에서 정해진다.
;DOWNBASE: 	캐릭터 1차원 배열, @SHOW_USERCOM 종료시 초기화, 감소되는 체력, 기력등에 사용

0,체력
1,기력
2,정신력,;		철충에게 포로로 잡힌 후 타락할 때까지 남은 정신력
3,사정
4,모유
5,요의
6,배설욕
7,발기,; 		발기 정도
8,정음,;		정음절정 한계치
;14,욕구불만
;15,배설물,;	0bitP치구, 1bitV치구

; 시간에 따른 성장 요소(CFLAG 9xx와 매칭된다)
10,신장,		; *10배 cm단위
11,체중
12,가슴
13,허리
14,엉덩이
15,페니스길이,	; *10배 mm단위
16,페니스둘레,	; *10배 mm단위
17,음모,;		0~1000 최대로 성장 가능한 음모 길이, 하루가 지날때마다 CFLAG:음모증감치 만큼 자란다
18,겨털,;		겨털 성장도
19,머리길이,;	0~1000

;20~
21,음핵,;		음핵 성장도(*10배 mm단위)
22,유두,;		유두 성장도
23,V확장,;	확장정도 (*10배 mm단위) 둘레로 취급한다.
24,A확장,;
25,U확장,;
26,V세척도,;	0:깨끗함~5000:V치구~10000:더러움
27,P세척도,;	0:깨끗함~5000:P치구~10000:더러움
29,임신보정,;	임신 확률 가중치

; 데이트 요소
;10,무드
;11,이성
;12,분노
;14,심도, ;잠든 정도
35,술기운
