﻿;Source.csv
;SOURCE: 캐릭터 1차원 배열, BEGIN TRAIN 이나 @SOURCE_CHECK 종료 시 초기화된다.
;쾌감계는 0～9에 고정
0,쾌C,;(쾌P)	PALAM:욕정 -> PALAM:쾌C↑; ABL:욕망 -> PALAM:욕정;	 억울, 음핵소지 시, PALAM:윤활,습득
1,쾌V,;		PALAM:욕정 -> PALAM:쾌V↑; ABL:욕망 -> PALAM:순종,욕정; 억울, 음호소지 시, PALAM:윤활
2,쾌A,;		PALAM:욕정 -> PALAM:쾌A↑; ABL:욕망 -> PALAM:욕정,굴복; 억울
3,쾌B,;		PALAM:욕정 -> PALAM:쾌B↑; ABL:욕망 -> PALAM:욕정;	 억울
4,쾌M,;		PALAM:욕정 -> PALAM:쾌M↑; ABL:욕망 -> PALAM:순종,굴복; 억울
5,쾌U,;		PALAM:욕정 -> PALAM:쾌U↑; ABL:욕망 -> PALAM:욕정,굴복; 억울

;8,착유,;
;9,쾌P,;

10,접촉,;		ABL:순종 -> PALAM:반감,순종; ABL:욕망 -> PALAM:불쾌,욕정, 연모 및 동성 소질에 의한 보정
11,애정,;		ABL:순종 -> PALAM:순종; ABL:욕망 -> PALAM:욕정
12,노출,;		PALAM:치정 -> PALAM:치정; ABL:순종 -> PALAM:반감; ABL:노출증 -> PALAM:욕정,반감; 추가 요소에 의한 보정
14,주도,;		PALAM:욕정,PALAM:기교,ABL:봉사,ABL:마조 -> PALAM:습득,욕정,주도(굴복)
15,성행동,;	PALAM:봉사정신 -> PALAM:습득, 억울
16,달성,;		ABL:순종,봉사정신 -> PALAM:순종
17,아픔,;		ABL:순종 -> PALAM:공포↓반감↓; ABL:마조 -> PALAM:반감↓욕정↑
18,가려움,;	ABL:마조 -> PALAM:욕정↑고통↑반감↓; ABL:자위 -> PALAM:욕정↑굴복↑
19,굴복,; 	ABL:순종 -> PALAM:굴복↑억울↓
; (행동을 제약하거나, 타인에게 시켜줄때 증가하는 소스, 애태우기, 육변기, 수간, 등)
20,지배,;	ABL:순종 -> PALAM:공포↑,굴복↑,억울↓,반감↓; ABL:새드 -> PALAM:반감↑; ABL:마조 -> PALAM:반감↓,욕정↑
; (중독충족)
21,해소,;		ABL:욕망 -> PALAM:순종↑,욕정↑
; (수치계, 고통계)
22,트라우마,;	MARK:공포각인 -> PALAM:굴복↑,공포↑,불쾌↑
23,성기술습득,;	ABL:봉사 -> PALAM:습득↑,굴복↓
24,불결,;		ABL:순종 -> PALAM:반감↓,불쾌↓
25,일탈,;		ABL:순종,욕망 -> 반감↓
26,슬픔,;(비애)

;아래는 PALAM에 순수하게 +한다.
41,순종추가,; PALAM:순종에 추가
42,욕정추가,; PALAM:욕정에 추가
43,액체추가,; PALAM:윤활에 추가
44,반감추가,; PALAM:반감에 추가

50,취기,;		PALAM:욕정 -> BASE:술기운↑,PALAM:욕정↑,불쾌↓
51,약물침윤,;	ABL:미약 -> 욕정,약물; ABL:순종 -> 욕정,불쾌,약물; MARK:반발각인 -> 욕정,불쾌
52,촉수오염,;	EXP:촉수경험 -> 굴복,불쾌,침식; NOWEX로 보정
;53,포만감,;



