;Title 화면 타이틀 추가 시, Const.ERH의 TITLE_COUNT 수정해야함
Title1,Title1.jpg,0,0,1000,562
Title2,Title2.png,0,0,1080,340
Title3,Title3.jpg

Banner,Banner.png

;------------------------------------------------------------
;배경 이미지 (이미지는 소스로 저장하여 관리한다)
;------------------------------------------------------------

;배경_사령실,Background/배경_오르카사령실.jpg
;배경_서약식,Background/배경_갑판위의서약식.png
;배경_캠핑장,Background/배경_둘만의캠핑장.png
;배경_침실,Background/배경_로맨틱한침실.png
;배경_설원,Background/배경_멸망후의설원.png
;배경_휴양지,Background/배경_바다가보이는휴양지.png
;배경_온천,Background/배경_설산이보이는온천.png
;배경_페허,Background/배경_시작의페허.png
;배경_함장실,Background/배경_아늘한함장실.png
;배경_숲길,Background/배경_으슥한숲길.png
;배경_해변가,Background/배경_추억의해변가.png

;배경_제작,Background/배경_제작.jpg

;------------------------------------------------------------
;이벤트 이미지
;------------------------------------------------------------
;이벤트_별의아이,Background/이벤트_별의아이.png
